<?xml version="1.0" encoding="UTF-8"?>
<CustomTab xmlns="http://soap.sforce.com/2006/04/metadata">
    <label>Assign Permission Sets</label>
    <mobileReady>false</mobileReady>
    <motif>Custom76: Keys</motif>
    <page>AssignPermissionSets</page>
</CustomTab>
