<?xml version="1.0" encoding="UTF-8"?>
<CustomTab xmlns="http://soap.sforce.com/2006/04/metadata">
    <description>nCino Support, nCino University, Knowledge, Ideas &amp; FAQs</description>
    <frameHeight>1700</frameHeight>
    <hasSidebar>false</hasSidebar>
    <label>nCino Support Center</label>
    <mobileReady>false</mobileReady>
    <motif>Custom55: Books</motif>
    <url>https://login.salesforce.com/services/auth/sso/00D30000001H6gbEAC/
Knowledgebase?site=https://ncino.secure.force.com/knowledgebase&amp;startURL=/apex/pkb_Template</url>
    <urlEncodingKey>UTF-8</urlEncodingKey>
</CustomTab>
